<?xml version="1.0" encoding="iso-8859-1"?>
<!-- Generator: Adobe Illustrator 19.1.0, SVG Export Plug-In . SVG Version: 6.00 Build 0)  -->
<svg version="1.1" id="Capa_1" xmlns="http://www.w3.org/2000/svg" xmlns:xlink="http://www.w3.org/1999/xlink" x="0px" y="0px"
	 viewBox="0 0 306.637 306.637" fill="#ffffff" xml:space="preserve">
<g>
	<g>
		<path d="M12.809,238.52L0,306.637l68.118-12.809l184.277-184.277l-55.309-55.309L12.809,238.52z M60.79,279.943l-41.992,7.896
			l7.896-41.992L197.086,75.455l34.096,34.096L60.79,279.943z"/>
		<path d="M251.329,0l-41.507,41.507l55.308,55.308l41.507-41.507L251.329,0z M231.035,41.507l20.294-20.294l34.095,34.095
			L265.13,75.602L231.035,41.507z"/>
	</g>
	<g>
	</g>
	<g>
	</g>
	<g>
	</g>
	<g>
	</g>
	<g>
	</g>
	<g>
	</g>
	<g>
	</g>
	<g>
	</g>
	<g>
	</g>
	<g>
	</g>
	<g>
	</g>
	<g>
	</g>
	<g>
	</g>
	<g>
	</g>
	<g>
	</g>
</g>
<g>
</g>
<g>
</g>
<g>
</g>
<g>
</g>
<g>
</g>
<g>
</g>
<g>
</g>
<g>
</g>
<g>
</g>
<g>
</g>
<g>
</g>
<g>
</g>
<g>
</g>
<g>
</g>
<g>
</g>
</svg>
